{
    "Users": 
    [
        {
            "_id": "90823475023kdsjfl",
            "name": "Käyttäjä",
            "pwhash": "f0e4c2f76c58916ec258f246851bea091d14d4247a2fc3e18694461b1816e13b",
            "sets": 
            [
                "asgsher345645tyfg",
                "asgsher345645asdf"
            ]
        },
        {
            "_id": "90823475023kdsjfl",
            "name": "Panu",
            "pwhash": "aitab8a09eaw8riwor02937qbpar9baoneragda89f77gnuvbua83742984suiy7",
            "sets": 
            [
                "asgsher345645asdf"
            ]
        }
    ],
    "Sets": 
    [
        {
            "_id": "asgsher345645tyfg",
            "name": "Sauna1",
            "sensors": 
            [
                {
                    "_id": "sakuy6sdf98aasgs4",
                    "name": "Device_0",
                    "type": "Temperature",
                    "values": 
                    [
                        {
                            "value": 75.6,
                            "time": "2017-11-21T16:45:00"
                        },
                        {
                            "value": 72.4,
                            "time": "2017-11-21T16:44:00"
                        },
                        {
                            "value": 71.1,
                            "time": "2017-11-21T16:43:00"
                        }
                    ]
                },
                
                {
                    "_id": "sdu94ka023u4n2b09r",
                    "name": "Humidity_1",
                    "type": "Humidity",
                    "values": 
                    [
                        {
                            "value": 40.2,
                            "time": "2017-11-21T16:45:00"
                        },
                        {
                            "value": 42.3,
                            "time": "2017-11-21T16:44:00"
                        },
                        {
                            "value": 39.1,
                            "time": "2017-11-21T16:43:00"
                        }
                    ]
                }
            ]
        },
        {
            "_id": "asgsher345645asdf",
            "name": "Sauna2",
            "type": "Temperature",
            "sensors": 
            [
                {
                    "_id": "8943sdkjhf89kjsd",
                    "name": "Kiuas",
                    "type": "Temperature",
                    "values": 
                    [
                        {
                            "value": 81.2,
                            "time": "2017-11-21T16:45:00"
                        },
                        {
                            "value": 72.4,
                            "time": "2017-11-21T16:44:00"
                        },
                        {
                            "value": 69.2,
                            "time": "2017-11-21T16:43:00"
                        }
                    ]
                }
            ]
        }
    ]
}
